have_library: checking for main() in -lc... -------------------- yes

"gcc -o conftest -I/Users/abashelor/.rubies/ruby-1.9.3-p392/include/ruby-1.9.1/x86_64-darwin12.3.0 -I/Users/abashelor/.rubies/ruby-1.9.3-p392/include/ruby-1.9.1/ruby/backward -I/Users/abashelor/.rubies/ruby-1.9.3-p392/include/ruby-1.9.1 -I. -I'/Users/abashelor/.rubies/ruby-1.9.3-p392/include'  -D_XOPEN_SOURCE -D_DARWIN_C_SOURCE  -I'/Users/abashelor/.rubies/ruby-1.9.3-p392/include'    -Wno-error=shorten-64-to-32 -pipe -O0 -Wall conftest.c  -L. -L/Users/abashelor/.rubies/ruby-1.9.3-p392/lib -L. -L'/Users/abashelor/.rubies/ruby-1.9.3-p392/lib'      -lruby-static  -lpthread -ldl -lobjc "
checked program was:
/* begin */
1: #include "ruby.h"
2: 
3: int main() {return 0;}
/* end */

"gcc -o conftest -I/Users/abashelor/.rubies/ruby-1.9.3-p392/include/ruby-1.9.1/x86_64-darwin12.3.0 -I/Users/abashelor/.rubies/ruby-1.9.3-p392/include/ruby-1.9.1/ruby/backward -I/Users/abashelor/.rubies/ruby-1.9.3-p392/include/ruby-1.9.1 -I. -I'/Users/abashelor/.rubies/ruby-1.9.3-p392/include'  -D_XOPEN_SOURCE -D_DARWIN_C_SOURCE  -I'/Users/abashelor/.rubies/ruby-1.9.3-p392/include'    -Wno-error=shorten-64-to-32 -pipe -O0 -Wall conftest.c  -L. -L/Users/abashelor/.rubies/ruby-1.9.3-p392/lib -L. -L'/Users/abashelor/.rubies/ruby-1.9.3-p392/lib'      -lruby-static -lc  -lpthread -ldl -lobjc "
checked program was:
/* begin */
1: #include "ruby.h"
2: 
3: /*top*/
4: int main() {return 0;}
5: int t() { void ((*volatile p)()); p = (void ((*)()))main; return 0; }
/* end */

--------------------

